<svg width="20" height="20" viewBox="0 0 20 20" fill="none" xmlns="http://www.w3.org/2000/svg">
<circle cx="10" cy="10" r="10" fill="url(#paint0_linear)"/>
<path d="M8.14436 5C6.64427 5 5.41699 6.21847 5.41699 7.70767V11.7429C5.41699 13.2321 6.64427 14.4506 8.14436 14.4506H12.2089C12.5059 14.4506 12.8645 14.4649 12.9777 14.474C13.1487 14.4718 14.0432 14.5517 14.3897 14.9717C14.5559 15.1732 14.8621 14.2454 14.6483 13.887L14.37 13.3728C14.7199 12.9174 14.9362 12.3565 14.9362 11.7429V7.70767C14.9362 6.21847 13.7089 5 12.2089 5H8.14436ZM6.6912 11.1056V8.33004C6.6912 7.19014 7.63062 6.25756 8.77882 6.25756H11.5745C12.7226 6.25756 13.6621 7.19014 13.6621 8.33004V10.9824C13.6618 11.0219 13.6604 11.0875 13.6553 11.1704C13.6526 11.2559 13.6427 11.3395 13.6296 11.4222C13.6231 11.4699 13.5999 11.6734 13.5272 11.8178C13.2039 11.7028 12.4257 11.9515 12.5525 12.0161C13.0273 12.2578 13.5752 13.4785 13.5752 13.4785C13.1734 13.1764 12.0414 13.178 11.5745 13.178H8.77882C7.63062 13.178 6.6912 12.2455 6.6912 11.1056" fill="white"/>
<defs>
<linearGradient id="paint0_linear" x1="20.0078" y1="10.0133" x2="-8.89861e-08" y2="10.0133" gradientUnits="userSpaceOnUse">
<stop stop-color="#74C162"/>
<stop offset="1" stop-color="#55BD97"/>
</linearGradient>
</defs>
</svg>
