<svg width="24" height="24" viewBox="0 0 24 24" fill="none" xmlns="http://www.w3.org/2000/svg">
<path d="M19 12V7C19 5.89543 18.1046 5 17 5H5C3.89543 5 3 5.89543 3 7V17C3 18.1046 3.89543 19 5 19H13" stroke="#006FE6"/>
<path d="M16 12V10C16 8.89543 15.1046 8 14 8H8C6.89543 8 6 8.89543 6 10V14C6 15.1046 6.89543 16 8 16H12.25" stroke="#006FE6"/>
<circle cx="18" cy="17" r="1.5" stroke="#006FE6"/>
<circle cx="18" cy="17" r="3.5" stroke="#006FE6"/>
</svg>
